…
## Example

This is a basic example which shows you how to access data from the
[k2names](https://exoplanetarchive.ipac.caltech.edu/docs/API_k2names_columns.html)
table:

``` r
library(exoplanets)

exoplanets("k2names", progress = FALSE)
#> ● https://exoplanetarchive.ipac.caltech.edu/TAP/sync?query=select+*+from+k2names&format=csv
#> # A tibble: 449 x 3
#>    epic_id        k2_name  pl_name     
#>    <chr>          <chr>    <chr>       
#>  1 EPIC 246199087 K2-112 f TRAPPIST-1 f
#>  2 EPIC 246199087 K2-112 h TRAPPIST-1 h
#>  3 EPIC 220383386 K2-96 d  HD 3167 d   
#>  4 EPIC 211331236 K2-117 c K2-117 c    
#>  5 EPIC 212398486 K2-125 b K2-125 b    
#>  6 EPIC 217941732 K2-130 b K2-130 b    
#>  7 EPIC 228754001 K2-132 b K2-132 b    
#>  8 EPIC 247887989 K2-133 d K2-133 d    
#>  9 EPIC 246389858 K2-135 b GJ 9827 b   
#> 10 EPIC 247589423 K2-136 b K2-136 b    
#> # … with 439 more rows
```

If you wish, you can select only the columns you need:

``` r
exoplanets("ps", c("pl_name", "hostname"), progress = FALSE)
#> ● https://exoplanetarchive.ipac.caltech.edu/TAP/sync?query=select+pl_name,hostname+from+ps&format=csv
#> 
#> ── Column specification ────────────────────────────────────────────────────────
#> cols(
#>   pl_name = col_character(),
#>   hostname = col_character()
#> )
#> # A tibble: 29,398 x 2
#>    pl_name      hostname  
#>    <chr>        <chr>     
#>  1 Kepler-11 c  Kepler-11 
#>  2 Kepler-11 f  Kepler-11 
#>  3 HAT-P-1 b    HAT-P-1   
#>  4 OGLE-TR-10 b OGLE-TR-10
#>  5 TrES-2 b     TrES-2    
#>  6 WASP-3 b     WASP-3    
#>  7 47 UMa b     47 UMa    
#>  8 47 UMa d     47 UMa    
#>  9 HD 167042 b  HD 167042 
#> 10 HD 210702 b  HD 210702 
#> # … with 29,388 more rows
```

Information on the tables and columns available can be found with:

``` r
tableinfo
#> # A tibble: 1,800 x 3
#>    table                  column       description          
#>    <chr>                  <chr>        <chr>                
#>  1 Planetary Systems (PS) pl_name      Planet Name          
#>  2 Planetary Systems (PS) hostname     Host Name            
#>  3 Planetary Systems (PS) pl_letter    Planet Letter        
#>  4 Planetary Systems (PS) hd_name      HD ID                
#>  5 Planetary Systems (PS) hip_name     HIP ID               
#>  6 Planetary Systems (PS) tic_id       TIC ID               
#>  7 Planetary Systems (PS) gaia_id      GAIA ID              
#>  8 Planetary Systems (PS) default_flag Default Parameter Set
#>  9 Planetary Systems (PS) sy_snum      Number of Stars      
#> 10 Planetary Systems (PS) sy_pnum      Number of Planets    
#> # … with 1,790 more rows
```
…
