Table Information — tableinfo • exoplanets
…
tableinfo

    Format

    An object of class tbl_df (inherits from tbl, data.frame) with 546 rows and 13 columns.

    Source

    https://exoplanetarchive.ipac.caltech.edu/docs/TAP/usingTAP.html

    Examples

tableinfo
#> # A tibble: 546 × 13
#>    table databas…¹ table…² descr…³ in_ps…⁴ in_ps…⁵ uncer…⁶ limit…⁷ default notes
#>    <chr> <chr>     <chr>   <chr>   <lgl>   <lgl>   <chr>   <chr>   <lgl>   <chr>
#>  1 ps    default_… Defaul… Boolea… TRUE    FALSE   NA      NA      TRUE    NA   
#>  2 ps    soltype   Soluti… Dispos… TRUE    FALSE   NA      NA      TRUE    NA   
#>  3 ps    pl_contr… Contro… Flag i… TRUE    TRUE    NA      NA      TRUE    NA   
#>  4 ps    pl_name   Planet… Planet… TRUE    TRUE    NA      NA      TRUE    NA   
#>  5 ps    hostname  Host N… Stella… TRUE    TRUE    NA      NA      TRUE    NA   
#>  6 ps    pl_letter Planet… Letter… TRUE    TRUE    NA      NA      FALSE   NA   
#>  7 ps    hd_name   HD ID   Name o… TRUE    TRUE    NA      NA      FALSE   NA   
#>  8 ps    hip_name  HIP ID  Name o… TRUE    TRUE    NA      NA      FALSE   NA   
#>  9 ps    tic_id    TIC ID  Name o… TRUE    TRUE    NA      NA      FALSE   NA   
#> 10 ps    gaia_id   GAIA ID Name o… TRUE    TRUE    NA      NA      FALSE   NA   
#> # … with 536 more rows, 3 more variables: displayed_string_name <chr>,
#> #   flag_column <lgl>, number_of_measurements <lgl>, and abbreviated variable
#> #   names ¹​database_column_name, ²​table_label, ³​description, ⁴​in_ps_table,
#> #   ⁵​in_ps_comp_pars_table, ⁶​uncertainties_column_positive_negative,
#> #   ⁷​limit_column
…
