…
Installation

You can install the development version from GitHub with:

# install.packages("devtools")
devtools::install_github("tylurp/exoplanets")

Example

This is a basic example which shows you how to access data from the exoplanet table:

library(exoplanets)

exo("exoplanets")
#> # A tibble: 4,352 x 82
#>    pl_hostname pl_letter pl_name  pl_discmethod pl_controvflag pl_pnum pl_orbper
#>    <chr>       <chr>     <chr>    <chr>                  <dbl>   <dbl>     <dbl>
#>  1 Kepler-128  b         Kepler-… Transit                    0       2     15.1 
#>  2 Kepler-128  c         Kepler-… Transit                    0       2     22.8 
#>  3 Kepler-129  b         Kepler-… Transit                    0       2     15.8 
#>  4 Kepler-129  c         Kepler-… Transit                    0       2     82.2 
#>  5 Kepler-130  b         Kepler-… Transit                    0       3      8.46
#>  6 Kepler-130  c         Kepler-… Transit                    0       3     27.5 
#>  7 Kepler-130  d         Kepler-… Transit                    0       3     87.5 
#>  8 Kepler-131  b         Kepler-… Transit                    0       2     16.1 
#>  9 Kepler-131  c         Kepler-… Transit                    0       2     25.5 
#> 10 Kepler-132  b         Kepler-… Transit                    0       4      6.18
#> # … with 4,342 more rows, and 75 more variables: pl_orbpererr1 <dbl>,
#> #   pl_orbpererr2 <dbl>, pl_orbperlim <dbl>, pl_orbpern <dbl>,
#> #   pl_orbsmax <dbl>, pl_orbsmaxerr1 <dbl>, pl_orbsmaxerr2 <dbl>,
#> #   pl_orbsmaxlim <dbl>, pl_orbsmaxn <dbl>, pl_orbeccen <dbl>,
#> #   pl_orbeccenerr1 <dbl>, pl_orbeccenerr2 <dbl>, pl_orbeccenlim <dbl>,
#> #   pl_orbeccenn <dbl>, pl_orbincl <dbl>, pl_orbinclerr1 <dbl>,
#> #   pl_orbinclerr2 <dbl>, pl_orbincllim <dbl>, pl_orbincln <dbl>,
#> #   pl_bmassj <dbl>, pl_bmassjerr1 <dbl>, pl_bmassjerr2 <dbl>,
#> #   pl_bmassjlim <dbl>, pl_bmassn <dbl>, pl_bmassprov <chr>, pl_radj <dbl>,
…
To access data from a different table you can use the table parameter:

exo("keplernames")
#> * <https://exoplanetarchive.ipac.caltech.edu/cgi-bin/nstedAPI/nph-nstedAPI?table=keplernames>
#> # A tibble: 2,414 x 13
#>      kepid    ra ra_err   dec dec_err ra_str    dec_str   kepoi_name kepler_name
#>      <dbl> <dbl>  <dbl> <dbl>   <dbl> <chr>     <chr>     <chr>      <chr>      
#>  1  1.10e7  293.      0  48.4       0 19h33m24… +48d26m4… K01931.02  Kepler-339…
#>  2  5.20e6  296.      0  40.3       0 19h43m44… +40d18m0… K01932.02  Kepler-340…
#>  3  5.20e6  296.      0  40.3       0 19h43m44… +40d18m0… K01932.01  Kepler-340…
#>  4  7.75e6  290.      0  43.5       0 19h19m26… +43d28m2… K01952.03  Kepler-341…
#>  5  7.75e6  290.      0  43.5       0 19h19m26… +43d28m2… K01952.01  Kepler-341…
#>  6  7.75e6  290.      0  43.5       0 19h19m26… +43d28m2… K01952.02  Kepler-341…
#>  7  7.75e6  290.      0  43.5       0 19h19m26… +43d28m2… K01952.04  Kepler-341…
#>  8  9.89e6  293.      0  46.7       0 19h30m42… +46d43m3… K01955.01  Kepler-342…
#>  9  9.89e6  293.      0  46.7       0 19h30m42… +46d43m3… K01955.04  Kepler-342…
#> 10  9.89e6  293.      0  46.7       0 19h30m42… +46d43m3… K01955.02  Kepler-342…
#> # … with 2,404 more rows, and 4 more variables: alt_name <chr>,
#> #   tm_designation <chr>, koi_list_flag <chr>, last_update <date>
…
Finally, you can take a look at the docs and use eco_raw to write out queries in their entirety. Spaces and single quotes will be escaped automatically. The only supported format is CSV so do not request JSON, ipac, or others:

x <- c(
  base = "https://exoplanetarchive.ipac.caltech.edu/cgi-bin/nstedAPI/nph-nstedAPI?",
  table = "table=exoplanets",
  columns = "&select=pl_hostname,ra,dec",
  parameters = "&order=dec"
)

query <- paste(x, collapse = "")

exo_raw(query)
#> # A tibble: 4,352 x 3
#>    pl_hostname     ra   dec
#>    <chr>        <dbl> <dbl>
#>  1 HD 142022 A 243.   -84.2
#>  2 HD 39091     84.3  -80.5
#>  3 HD 39091     84.3  -80.5
#>  4 HD 137388   234.   -80.2
#>  5 GJ 3021       4.05 -79.9
#>  6 HD 63454    115.   -78.3
#>  7 HD 212301   337.   -77.7
#>  8 HD 97048    167.   -77.7
#>  9 CHXR 73     167.   -77.6
#> 10 HD 221420   353.   -77.4
#> # … with 4,342 more rows
…
