Common queries • exoplanets
…
exoplanets
#> # A tibble: 4,055 x 414
#>       ra st_raerr st_rah st_raherr ra_str   dec st_decerr dec_str st_glon
#>    <dbl>    <dbl>  <dbl>     <dbl> <chr>  <dbl>     <dbl> <chr>     <dbl>
#>  1  288. 0.000019   19.2   1.30e-6 19h12…  40.5  0.000017 +40d31…    71.8
#>  2  288. 0.000019   19.2   1.30e-6 19h12…  40.5  0.000017 +40d31…    71.8
#>  3  292. 0.000017   19.5   1.11e-6 19h28…  41.0  0.000017 +41d01…    73.6
#>  4  292. 0.000017   19.5   1.11e-6 19h28…  41.0  0.000017 +41d01…    73.6
#>  5  287. 0.000022   19.1   1.48e-6 19h07…  42.0  0.000017 +41d59…    72.8
#>  6  287. 0.000022   19.1   1.48e-6 19h07…  42.0  0.000017 +41d59…    72.8
#>  7  282. 0.000019   18.8   1.30e-6 18h49…  48.3  0.000017 +48d15…    77.8
#>  8  282. 0.000019   18.8   1.30e-6 18h49…  48.3  0.000017 +48d15…    77.8
#>  9  290. 0.000022   19.3   1.48e-6 19h19…  49.9  0.000017 +49d53…    81.2
#> 10  290. 0.000022   19.3   1.48e-6 19h19…  49.9  0.000017 +49d53…    81.2
#> # … with 4,045 more rows, and 405 more variables: st_glonerr <dbl>,
#> #   st_glat <dbl>, st_glaterr <dbl>, st_elon <dbl>, st_elonerr <dbl>,
#> #   st_elat <dbl>, st_elaterr <dbl>, st_posn <dbl>, st_plx <dbl>,
#> #   st_plxerr1 <dbl>, st_plxerr2 <dbl>, st_plxlim <dbl>, st_plxn <dbl>,
#> #   st_dist <dbl>, st_disterr1 <dbl>, st_disterr2 <dbl>, st_distlim <dbl>,
#> #   st_distn <dbl>, st_pmra <dbl>, st_pmraerr <dbl>, st_pmralim <dbl>,
#> #   st_pmdec <dbl>, st_pmdecerr <dbl>, st_pmdeclim <dbl>, st_pm <dbl>,
#> #   st_pmerr <dbl>, st_pmlim <dbl>, st_pmn <dbl>, st_radv <dbl>,
#> #   st_radverr1 <dbl>, st_radverr2 <dbl>, st_radvlim <dbl>,
…
Confirmed planets in the Kepler field

exoplanets %>% 
  filter(pl_kepflag == 1) %>% 
  as_tibble()
#> # A tibble: 2,354 x 414
#>       ra st_raerr st_rah st_raherr ra_str   dec st_decerr dec_str st_glon
#>    <dbl>    <dbl>  <dbl>     <dbl> <chr>  <dbl>     <dbl> <chr>     <dbl>
#>  1  288. 0.000019   19.2   1.30e-6 19h12…  40.5  0.000017 +40d31…    71.8
#>  2  288. 0.000019   19.2   1.30e-6 19h12…  40.5  0.000017 +40d31…    71.8
#>  3  292. 0.000017   19.5   1.11e-6 19h28…  41.0  0.000017 +41d01…    73.6
#>  4  292. 0.000017   19.5   1.11e-6 19h28…  41.0  0.000017 +41d01…    73.6
#>  5  287. 0.000022   19.1   1.48e-6 19h07…  42.0  0.000017 +41d59…    72.8
#>  6  287. 0.000022   19.1   1.48e-6 19h07…  42.0  0.000017 +41d59…    72.8
#>  7  282. 0.000019   18.8   1.30e-6 18h49…  48.3  0.000017 +48d15…    77.8
#>  8  282. 0.000019   18.8   1.30e-6 18h49…  48.3  0.000017 +48d15…    77.8
#>  9  290. 0.000022   19.3   1.48e-6 19h19…  49.9  0.000017 +49d53…    81.2
#> 10  290. 0.000022   19.3   1.48e-6 19h19…  49.9  0.000017 +49d53…    81.2
#> # … with 2,344 more rows, and 405 more variables: st_glonerr <dbl>,
#> #   st_glat <dbl>, st_glaterr <dbl>, st_elon <dbl>, st_elonerr <dbl>,
#> #   st_elat <dbl>, st_elaterr <dbl>, st_posn <dbl>, st_plx <dbl>,
#> #   st_plxerr1 <dbl>, st_plxerr2 <dbl>, st_plxlim <dbl>, st_plxn <dbl>,
#> #   st_dist <dbl>, st_disterr1 <dbl>, st_disterr2 <dbl>, st_distlim <dbl>,
#> #   st_distn <dbl>, st_pmra <dbl>, st_pmraerr <dbl>, st_pmralim <dbl>,
#> #   st_pmdec <dbl>, st_pmdecerr <dbl>, st_pmdeclim <dbl>, st_pm <dbl>,
#> #   st_pmerr <dbl>, st_pmlim <dbl>, st_pmn <dbl>, st_radv <dbl>,
#> #   st_radverr1 <dbl>, st_radverr2 <dbl>, st_radvlim <dbl>,
…
Stars known to host exoplanets listed in ascending order

exoplanets %>% 
  distinct(pl_hostname, .keep_all = TRUE) %>% 
  arrange(pl_hostname)
#> # A tibble: 3,019 x 414
#>       ra st_raerr st_rah st_raherr ra_str     dec st_decerr dec_str st_glon
#>    <dbl>    <dbl>  <dbl>     <dbl> <chr>    <dbl>     <dbl> <chr>     <dbl>
#>  1 185.  0.000002  12.3    1.50e-7 12h20…  17.8    0.000001 +17d47…   264. 
#>  2 229.  0.000001  15.3    9.00e-8 15h17…  71.8    0.000001 +71d49…   109. 
#>  3 353.  0.000001  23.5    9.00e-8 23h31…  39.2    0.000001 +39d14…   106. 
#>  4 243.  0.000001  16.2    8.00e-8 16h10…  43.8    0.000001 +43d49…    69.2
#>  5 295.  0.000001  19.7    1.00e-7 19h41…  50.5    0.000001 +50d31…    83.3
#>  6 315.  0.000002  21.0    1.20e-7 20h58…  10.8    0.000001 +10d50…    58.7
#>  7 242.  0.000017  16.2    1.11e-6 16h09… -21.1    0.000017 -21d04…   353. 
#>  8 217.  0.000001  14.5    8.00e-8 14h28…  49.8    0.000001 +49d50…    90.2
#>  9 156.  0.000002  10.4    1.30e-7 10h23…  -0.902  0.000001 -00d54…   245. 
#> 10  20.7 0.000022   1.38   1.48e-6 01h22… -24.7    0.000019 -24d39…   195. 
#> # … with 3,009 more rows, and 405 more variables: st_glonerr <dbl>,
#> #   st_glat <dbl>, st_glaterr <dbl>, st_elon <dbl>, st_elonerr <dbl>,
#> #   st_elat <dbl>, st_elaterr <dbl>, st_posn <dbl>, st_plx <dbl>,
#> #   st_plxerr1 <dbl>, st_plxerr2 <dbl>, st_plxlim <dbl>, st_plxn <dbl>,
#> #   st_dist <dbl>, st_disterr1 <dbl>, st_disterr2 <dbl>, st_distlim <dbl>,
#> #   st_distn <dbl>, st_pmra <dbl>, st_pmraerr <dbl>, st_pmralim <dbl>,
#> #   st_pmdec <dbl>, st_pmdecerr <dbl>, st_pmdeclim <dbl>, st_pm <dbl>,
#> #   st_pmerr <dbl>, st_pmlim <dbl>, st_pmn <dbl>, st_radv <dbl>,
#> #   st_radverr1 <dbl>, st_radverr2 <dbl>, st_radvlim <dbl>,
…
Confirmed planets that transit their host stars

exoplanets %>% 
  filter(pl_tranflag == 1)
#> # A tibble: 3,142 x 414
#>       ra st_raerr st_rah st_raherr ra_str   dec st_decerr dec_str st_glon
#>    <dbl>    <dbl>  <dbl>     <dbl> <chr>  <dbl>     <dbl> <chr>     <dbl>
#>  1  288. 0.000019   19.2   1.30e-6 19h12…  40.5  0.000017 +40d31…    71.8
#>  2  288. 0.000019   19.2   1.30e-6 19h12…  40.5  0.000017 +40d31…    71.8
#>  3  292. 0.000017   19.5   1.11e-6 19h28…  41.0  0.000017 +41d01…    73.6
#>  4  292. 0.000017   19.5   1.11e-6 19h28…  41.0  0.000017 +41d01…    73.6
#>  5  287. 0.000022   19.1   1.48e-6 19h07…  42.0  0.000017 +41d59…    72.8
#>  6  287. 0.000022   19.1   1.48e-6 19h07…  42.0  0.000017 +41d59…    72.8
#>  7  282. 0.000019   18.8   1.30e-6 18h49…  48.3  0.000017 +48d15…    77.8
#>  8  282. 0.000019   18.8   1.30e-6 18h49…  48.3  0.000017 +48d15…    77.8
#>  9  290. 0.000022   19.3   1.48e-6 19h19…  49.9  0.000017 +49d53…    81.2
#> 10  290. 0.000022   19.3   1.48e-6 19h19…  49.9  0.000017 +49d53…    81.2
#> # … with 3,132 more rows, and 405 more variables: st_glonerr <dbl>,
#> #   st_glat <dbl>, st_glaterr <dbl>, st_elon <dbl>, st_elonerr <dbl>,
#> #   st_elat <dbl>, st_elaterr <dbl>, st_posn <dbl>, st_plx <dbl>,
#> #   st_plxerr1 <dbl>, st_plxerr2 <dbl>, st_plxlim <dbl>, st_plxn <dbl>,
#> #   st_dist <dbl>, st_disterr1 <dbl>, st_disterr2 <dbl>, st_distlim <dbl>,
#> #   st_distn <dbl>, st_pmra <dbl>, st_pmraerr <dbl>, st_pmralim <dbl>,
#> #   st_pmdec <dbl>, st_pmdecerr <dbl>, st_pmdeclim <dbl>, st_pm <dbl>,
#> #   st_pmerr <dbl>, st_pmlim <dbl>, st_pmn <dbl>, st_radv <dbl>,
#> #   st_radverr1 <dbl>, st_radverr2 <dbl>, st_radvlim <dbl>,
…
A current list of non-confirmed planet candidates

cumulative <- exo(
  table = "cumulative", 
  progress = FALSE, 
  col_spec = FALSE
  ) 

cumulative %>% 
  filter(grepl("CANDIDATE", koi_disposition)) %>% 
  as_tibble()
#> # A tibble: 2,420 x 50
#>     kepid kepoi_name kepler_name koi_disposition koi_pdisposition koi_score
#>     <dbl> <chr>      <chr>       <chr>           <chr>                <dbl>
#>  1 1.08e7 K00753.01  <NA>        CANDIDATE       CANDIDATE            0    
#>  2 1.11e7 K00760.01  <NA>        CANDIDATE       CANDIDATE            1    
#>  3 1.18e7 K00777.01  <NA>        CANDIDATE       CANDIDATE            0.999
#>  4 1.19e7 K00780.02  <NA>        CANDIDATE       CANDIDATE            0.993
#>  5 9.58e6 K00115.03  <NA>        CANDIDATE       CANDIDATE            0.871
#>  6 3.12e6 K00797.01  <NA>        CANDIDATE       CANDIDATE            1    
#>  7 3.45e6 K00802.01  <NA>        CANDIDATE       CANDIDATE            1    
#>  8 3.64e6 K00804.01  <NA>        CANDIDATE       CANDIDATE            1    
#>  9 3.94e6 K00810.01  <NA>        CANDIDATE       CANDIDATE            1    
#> 10 4.54e6 K00815.01  <NA>        CANDIDATE       CANDIDATE            1    
#> # … with 2,410 more rows, and 44 more variables: koi_fpflag_nt <dbl>,
#> #   koi_fpflag_ss <dbl>, koi_fpflag_co <dbl>, koi_fpflag_ec <dbl>,
#> #   koi_period <dbl>, koi_period_err1 <dbl>, koi_period_err2 <dbl>,
#> #   koi_time0bk <dbl>, koi_time0bk_err1 <dbl>, koi_time0bk_err2 <dbl>,
#> #   koi_impact <dbl>, koi_impact_err1 <dbl>, koi_impact_err2 <dbl>,
#> #   koi_duration <dbl>, koi_duration_err1 <dbl>, koi_duration_err2 <dbl>,
#> #   koi_depth <dbl>, koi_depth_err1 <dbl>, koi_depth_err2 <dbl>,
#> #   koi_prad <dbl>, koi_prad_err1 <dbl>, koi_prad_err2 <dbl>,
#> #   koi_teq <dbl>, koi_teq_err1 <lgl>, koi_teq_err2 <lgl>,
…
