Introduction to exoplanets • exoplanets
…
exo: the main function for pulling data from the API via table names

exo_kelt, exo_kepler, and exo_wasp: the functions for pulling time series data

exo_summary: a function for summarising the database

Data Access

By default, exo will pull from the exoplanets table.

library(exoplanets)

df_exo <- exo()
df_exo
#> # A tibble: 4,057 x 82
#>    pl_hostname pl_letter pl_name pl_discmethod pl_controvflag pl_pnum
#>    <chr>       <chr>     <chr>   <chr>                  <dbl>   <dbl>
#>  1 Kepler-163  b         Kepler… Transit                    0       2
#>  2 Kepler-163  c         Kepler… Transit                    0       2
#>  3 Kepler-164  b         Kepler… Transit                    0       3
#>  4 Kepler-164  c         Kepler… Transit                    0       3
#>  5 Kepler-164  d         Kepler… Transit                    0       3
#>  6 Kepler-165  b         Kepler… Transit                    0       2
#>  7 Kepler-165  c         Kepler… Transit                    0       2
#>  8 Kepler-166  b         Kepler… Transit                    0       3
#>  9 Kepler-166  c         Kepler… Transit                    0       3
#> 10 Kepler-167  b         Kepler… Transit                    0       4
#> # … with 4,047 more rows, and 76 more variables: pl_orbper <dbl>,
#> #   pl_orbpererr1 <dbl>, pl_orbpererr2 <dbl>, pl_orbperlim <dbl>,
#> #   pl_orbpern <dbl>, pl_orbsmax <dbl>, pl_orbsmaxerr1 <dbl>,
#> #   pl_orbsmaxerr2 <dbl>, pl_orbsmaxlim <dbl>, pl_orbsmaxn <dbl>,
#> #   pl_orbeccen <dbl>, pl_orbeccenerr1 <dbl>, pl_orbeccenerr2 <dbl>,
#> #   pl_orbeccenlim <dbl>, pl_orbeccenn <dbl>, pl_orbincl <dbl>,
#> #   pl_orbinclerr1 <dbl>, pl_orbinclerr2 <dbl>, pl_orbincllim <dbl>,
#> #   pl_orbincln <dbl>, pl_bmassj <dbl>, pl_bmassjerr1 <dbl>,
#> #   pl_bmassjerr2 <dbl>, pl_bmassjlim <dbl>, pl_bmassn <dbl>,
…
# using exo_tables with exo
df_stars <- exo(exo_tables$missionstars)
df_stars
#> # A tibble: 360 x 27
#>    star_name hip_name hd_name gj_name tm_name st_exocatflag st_coronagflag
#>    <chr>     <chr>    <chr>   <chr>   <chr>           <dbl>          <dbl>
#>  1 HIP 3419  HIP 3419 HD 4128 GJ 31   2MASS …             1              1
#>  2 HIP 3765  HIP 3765 HD 4628 GJ 33   2MASS …             1              1
#>  3 HIP 3821… HIP 382… HD 4614 GJ 34 A 2MASS …             1              1
#>  4 HIP 3909  HIP 3909 HD 4813 GJ 37   2MASS …             1              0
#>  5 HIP 4151  HIP 4151 HD 5015 GJ 41   2MASS …             1              1
#>  6 HIP 5336  HIP 5336 HD 6582 GJ 53 A 2MASS …             1              1
#>  7 HIP 5862  HIP 5862 HD 7570 GJ 55   2MASS …             1              1
#>  8 ups And   HIP 7513 HD 9826 GJ 61 A 2MASS …             1              1
#>  9 HIP 7751… HIP 775… HD 103… GJ 66 B 2MASS …             1              0
#> 10 HIP 7918  HIP 7918 HD 103… GJ 67   2MASS …             1              1
#> # … with 350 more rows, and 20 more variables: st_starshadeflag <dbl>,
#> #   st_wfirstflag <dbl>, st_lbtiflag <dbl>, st_rvflag <dbl>,
#> #   st_ppnum <dbl>, rastr <chr>, decstr <chr>, st_dist <dbl>,
#> #   st_disterr1 <dbl>, st_disterr2 <dbl>, st_vmag <dbl>, st_vmagerr <dbl>,
#> #   st_vmagsrc <chr>, st_bmv <dbl>, st_bmverr <dbl>, st_bmvsrc <chr>,
#> #   st_spttype <chr>, st_lbol <dbl>, st_lbolerr <dbl>, st_lbolsrc <chr>
…
