exoplanets • exoplanets
…
discovery
#> # A tibble: 29,398 x 4
#>    pl_name      pl_orbper pl_massj discoverymethod
#>    <chr>            <dbl>    <dbl> <chr>          
#>  1 Kepler-11 c      13.0     0.042 Transit        
#>  2 Kepler-11 f      46.7     0.007 Transit        
#>  3 HAT-P-1 b         4.47    0.532 Transit        
#>  4 OGLE-TR-10 b      3.10    0.62  Transit        
#>  5 TrES-2 b          2.47    1.20  Transit        
#>  6 WASP-3 b          1.85    1.76  Transit        
#>  7 47 UMa b       1078      NA     Radial Velocity
#>  8 47 UMa d      14002      NA     Radial Velocity
#>  9 HD 167042 b     421.     NA     Radial Velocity
#> 10 HD 210702 b     354.     NA     Radial Velocity
#> # … with 29,388 more rows
…
